<?xml version="1.0" encoding="UTF-8" standalone="no"?>
<svg
   xmlns:dc="http://purl.org/dc/elements/1.1/"
   xmlns:cc="http://creativecommons.org/ns#"
   xmlns:rdf="http://www.w3.org/1999/02/22-rdf-syntax-ns#"
   xmlns:svg="http://www.w3.org/2000/svg"
   xmlns="http://www.w3.org/2000/svg"
   xmlns:sodipodi="http://sodipodi.sourceforge.net/DTD/sodipodi-0.dtd"
   xmlns:inkscape="http://www.inkscape.org/namespaces/inkscape"
   version="1.1"
   id="svg2"
   viewBox="0 0 500.00001 293.99999"
   height="294"
   width="500"
   inkscape:version="0.91 r13725"
   sodipodi:docname="ff.svg">
  <sodipodi:namedview
     pagecolor="#ffffff"
     bordercolor="#666666"
     borderopacity="1"
     objecttolerance="10"
     gridtolerance="10"
     guidetolerance="10"
     inkscape:pageopacity="0"
     inkscape:pageshadow="2"
     inkscape:window-width="1333"
     inkscape:window-height="744"
     id="namedview43"
     showgrid="false"
     units="px"
     inkscape:zoom="1.4744054"
     inkscape:cx="261.95647"
     inkscape:cy="155.43211"
     inkscape:window-x="33"
     inkscape:window-y="24"
     inkscape:window-maximized="1"
     inkscape:current-layer="svg2" />
  <defs
     id="defs4" />
  <metadata
     id="metadata7">
    <rdf:RDF>
      <cc:Work
         rdf:about="">
        <dc:format>image/svg+xml</dc:format>
        <dc:type
           rdf:resource="http://purl.org/dc/dcmitype/StillImage" />
        <dc:title></dc:title>
      </cc:Work>
    </rdf:RDF>
  </metadata>
  <g
     style="display:inline;stroke:#0000ff;stroke-width:2.40111351;stroke-miterlimit:4;stroke-dasharray:none;stroke-opacity:1"
     id="layer2"
     transform="matrix(1.6413219,0,0,1.6413219,1.3036461,-18.455711)" />
  <g
     style="display:inline;stroke:#0000ff;stroke-width:2.40111351;stroke-miterlimit:4;stroke-dasharray:none;stroke-opacity:1"
     transform="matrix(1.6413219,0,0,1.6413219,1.3036461,-1425.8569)"
     id="layer1">
    <g
       id="text10829"
       style="font-style:normal;font-weight:normal;font-size:40px;line-height:125%;font-family:sans-serif;letter-spacing:0px;word-spacing:0px;fill:#000000;fill-opacity:1;stroke:#0000ff;stroke-width:2.40111351;stroke-linecap:butt;stroke-linejoin:miter;stroke-miterlimit:4;stroke-dasharray:none;stroke-opacity:1" />
  </g>
  <g
     style="display:inline;stroke:#0000ff;stroke-width:2.40111351;stroke-miterlimit:4;stroke-dasharray:none;stroke-opacity:1"
     id="layer4"
     transform="matrix(1.6413219,0,0,1.6413219,1.3036461,-18.455711)">
    <g
       id="g5154"
       transform="matrix(0.09049084,0,0,0.08852533,-11.279147,41.575707)"
       style="stroke:#0000ff;stroke-width:26.82727623;stroke-miterlimit:4;stroke-dasharray:none;stroke-opacity:1">
      <g
         id="g5139"
         transform="matrix(0.242536,-0.242536,0.970142,0.970142,0,0)"
         style="stroke:#0000ff;stroke-width:39.10712051;stroke-miterlimit:4;stroke-dasharray:none;stroke-opacity:1">
        <path
           id="path5137"
           style="fill:none;stroke:#0000ff;stroke-width:39.10712051;stroke-linecap:square;stroke-linejoin:round;stroke-miterlimit:4;stroke-dasharray:none;stroke-opacity:1"
           d="M 34.933305,220.2751 C -917.84146,393.42044 -203.2476,767.84846 934.51615,691.63236 1717.1626,639.20472 655.19098,369.9186 -444.14559,559.27625 c -310.78177,53.53129 -700.02571,70.91216 -1008.49231,125.31478 -309.6535,54.61195 -506.3307,139.664 -578.8969,232.71366 -74.7332,95.82851 -12.755,197.10111 237.37,271.65191 251.9535,75.0958 650.5083,108.7499 1032.99837,87.2269"
           inkscape:connector-curvature="0" />
      </g>
    </g>
    <g
       id="g5247"
       transform="matrix(0.06000707,0,0,0.06029848,22.202064,60.05147)"
       style="stroke:#0000ff;stroke-width:39.91703415;stroke-miterlimit:4;stroke-dasharray:none;stroke-opacity:1">
      <g
         id="g5232"
         transform="matrix(0.242536,-0.242536,0.970142,0.970142,0,0)"
         style="stroke:#0000ff;stroke-width:58.18854904;stroke-miterlimit:4;stroke-dasharray:none;stroke-opacity:1">
        <path
           id="path5230"
           style="fill:none;stroke:#0000ff;stroke-width:58.18854904;stroke-linecap:square;stroke-linejoin:round;stroke-miterlimit:4;stroke-dasharray:none;stroke-opacity:1"
           d="M -51.329718,691.63236 C -314.57886,623.3871 -693.6303,591.19866 -1068.6823,605.2404 c -298.4337,11.1732 -564.6658,50.71612 -778.2954,103.99641 -213.7601,53.31281 -372.6911,119.87042 -415.9856,194.57389 -54.209,93.53637 78.0677,187.4508 345.5678,254.3382 267.5193,66.8922 643.2049,99.9795 1017.35257,86.3919 298.76304,-10.8498 564.81649,-50.6266 778.29545,-103.9964 496.95119,-124.2378 724.5813,-299.91618 246.46146,-369.69222 -261.47157,-38.15873 -594.72661,-7.53319 -739.38439,61.61538 -628.23379,300.30514 1288.64585,505.68514 1725.23021,184.84614"
           inkscape:connector-curvature="0" />
      </g>
    </g>
    <g
       id="g5356"
       transform="matrix(0.06759207,0,0,0.0669661,77.285778,65.55977)"
       style="stroke:#0000ff;stroke-width:35.6892395;stroke-miterlimit:4;stroke-dasharray:none;stroke-opacity:1">
      <g
         id="g5335"
         transform="matrix(0.242536,-0.242536,0.970142,0.970142,0,0)"
         style="stroke:#0000ff;stroke-width:52.02553177;stroke-miterlimit:4;stroke-dasharray:none;stroke-opacity:1">
        <path
           id="path5333"
           style="fill:none;stroke:#0000ff;stroke-width:52.02553177;stroke-linecap:square;stroke-linejoin:round;stroke-miterlimit:4;stroke-dasharray:none;stroke-opacity:1"
           d="M -2647.9775,940.29447 -852.32948,491.38238"
           inkscape:connector-curvature="0" />
      </g>
      <g
         id="g5339"
         transform="matrix(0.242536,-0.242536,0.970142,0.970142,0,0)"
         style="stroke:#0000ff;stroke-width:52.02553177;stroke-miterlimit:4;stroke-dasharray:none;stroke-opacity:1">
        <path
           id="path5337"
           style="fill:none;stroke:#0000ff;stroke-width:52.02553177;stroke-linecap:square;stroke-linejoin:round;stroke-miterlimit:4;stroke-dasharray:none;stroke-opacity:1"
           d="m -1169.2087,1309.9867 c 137.1698,-47.343 303.55066,-88.9383 492.92292,-123.2307 C -176.22096,1096.2018 485.81423,1016.6796 371.17545,869.43717 246.17184,708.88219 -595.03747,687.2007 -1334.9468,755.66685 c -513.61,47.52595 -1011.6364,109.27904 -1399.2937,206.19338"
           inkscape:connector-curvature="0" />
      </g>
    </g>
    <g
       id="g5526"
       transform="matrix(0.04743858,0,0,0.04686868,152.15618,57.35314)"
       style="stroke:#0000ff;stroke-width:50.92200089;stroke-linecap:butt;stroke-linejoin:round;stroke-miterlimit:4;stroke-dasharray:none;stroke-opacity:1">
      <g
         id="g5505"
         transform="matrix(0.242536,-0.242536,0.970142,0.970142,-72.229647,48.153098)"
         style="stroke:#0000ff;stroke-width:74.230896;stroke-linecap:butt;stroke-linejoin:round;stroke-miterlimit:4;stroke-dasharray:none;stroke-opacity:1">
        <path
           id="path5503"
           style="fill:none;stroke:#0000ff;stroke-width:74.230896;stroke-linecap:butt;stroke-linejoin:round;stroke-miterlimit:4;stroke-dasharray:none;stroke-opacity:1"
           d="M -922.74725,508.98683 482.08235,860.19429"
           inkscape:connector-curvature="0" />
      </g>
      <g
         id="g5509"
         transform="matrix(0.242536,-0.242536,0.970142,0.970142,-72.229647,48.153098)"
         style="stroke:#0000ff;stroke-width:74.230896;stroke-linecap:butt;stroke-linejoin:round;stroke-miterlimit:4;stroke-dasharray:none;stroke-opacity:1">
        <path
           id="path5507"
           style="fill:none;stroke:#0000ff;stroke-width:74.230896;stroke-linecap:butt;stroke-linejoin:round;stroke-miterlimit:4;stroke-dasharray:none;stroke-opacity:1"
           d="m 617.63692,401.15992 -2413.26612,603.31648 862.6151,215.6538"
           inkscape:connector-curvature="0" />
      </g>
    </g>
    <g
       id="g5607"
       transform="matrix(0.06104807,0,0,0.07497528,161.29117,-31.102832)"
       style="stroke:#0000ff;stroke-width:35.49095154;stroke-miterlimit:4;stroke-dasharray:none;stroke-opacity:1">
      <g
         id="g5586"
         transform="matrix(0.242536,-0.242536,0.970142,0.970142,0,0)"
         style="stroke:#0000ff;stroke-width:51.73648071;stroke-miterlimit:4;stroke-dasharray:none;stroke-opacity:1">
        <path
           id="path5584"
           style="fill:none;stroke:#0000ff;stroke-width:51.73648071;stroke-linecap:square;stroke-linejoin:round;stroke-miterlimit:4;stroke-dasharray:none;stroke-opacity:1"
           d="m -984.36261,801.65987 c -250.19239,-45.13068 -243.84289,-138.78022 12.32383,-181.76517 292.46904,-49.0765 657.77506,2.42987 920.709062,71.73766 266.264748,70.18574 484.966088,159.61807 360.889798,248.66211 -78.47705,56.31949 -281.119961,92.68013 -468.27527,129.39263 -366.93901,71.9791 -697.92966,154.7268 -985.84591,246.4616"
           inkscape:connector-curvature="0" />
      </g>
      <g
         id="g5590"
         transform="matrix(0.242536,-0.242536,0.970142,0.970142,0,0)"
         style="stroke:#0000ff;stroke-width:51.73648071;stroke-miterlimit:4;stroke-dasharray:none;stroke-opacity:1">
        <path
           id="path5588"
           style="fill:none;stroke:#0000ff;stroke-width:51.73648071;stroke-linecap:square;stroke-linejoin:round;stroke-miterlimit:4;stroke-dasharray:none;stroke-opacity:1"
           d="M -146.39136,1066.6062 C -376.37809,927.92196 -865.05731,826.4978 -1452.6379,795.49796 c -278.0842,-14.6713 -581.0017,-10.23939 -776.3559,40.05056 -271.7552,69.95781 -199.2203,182.06398 65.1368,260.98498 385.639,115.1284 1037.68,148.6787 1573.83424,80.9806"
           inkscape:connector-curvature="0" />
      </g>
    </g>
    <g
       id="g5356-3"
       transform="matrix(0.04736255,0,0,0.04679914,215.47551,34.725498)"
       style="stroke:#0000ff;stroke-width:51.00070572;stroke-miterlimit:4;stroke-dasharray:none;stroke-opacity:1">
      <g
         id="g5335-6"
         transform="matrix(0.242536,-0.242536,0.970142,0.970142,0,0)"
         style="stroke:#0000ff;stroke-width:74.34562683;stroke-miterlimit:4;stroke-dasharray:none;stroke-opacity:1">
        <path
           id="path5333-7"
           style="fill:none;stroke:#0000ff;stroke-width:74.34562683;stroke-linecap:square;stroke-linejoin:round;stroke-miterlimit:4;stroke-dasharray:none;stroke-opacity:1"
           d="M -3241.1312,1088.5832 -852.32948,491.38238"
           inkscape:connector-curvature="0" />
      </g>
      <g
         id="g5339-5"
         transform="matrix(0.242536,-0.242536,0.970142,0.970142,0,0)"
         style="stroke:#0000ff;stroke-width:74.34562683;stroke-miterlimit:4;stroke-dasharray:none;stroke-opacity:1">
        <path
           id="path5337-3"
           style="fill:none;stroke:#0000ff;stroke-width:74.34562683;stroke-linecap:square;stroke-linejoin:round;stroke-miterlimit:4;stroke-dasharray:none;stroke-opacity:1"
           d="m -1169.2087,1309.9867 c 137.1698,-47.343 303.55066,-88.9383 492.92292,-123.2307 C -176.22096,1096.2018 485.81423,1016.6796 371.17545,869.43717 246.17184,708.88219 -595.03747,687.2007 -1334.9468,755.66685 -1848.5568,803.1928 -2859.581,993.1956 -3247.2383,1090.1099"
           inkscape:connector-curvature="0" />
      </g>
    </g>
    <g
       id="g5526-6"
       transform="matrix(0.04480364,0.01911223,-0.01945399,0.04401652,81.497494,-76.492472)"
       style="stroke:#0000ff;stroke-width:49.59549713;stroke-miterlimit:4;stroke-dasharray:none;stroke-opacity:1">
      <g
         id="g5505-2"
         transform="matrix(0.242536,-0.242536,0.970142,0.970142,3982.2449,0)"
         style="stroke:#0000ff;stroke-width:72.29720306;stroke-miterlimit:4;stroke-dasharray:none;stroke-opacity:1">
        <path
           id="path5503-9"
           style="fill:none;stroke:#0000ff;stroke-width:72.29720306;stroke-linecap:square;stroke-linejoin:round;stroke-miterlimit:4;stroke-dasharray:none;stroke-opacity:1"
           d="M -922.74725,508.98683 482.08235,860.19429"
           inkscape:connector-curvature="0" />
      </g>
      <g
         id="g5509-1"
         transform="matrix(0.242536,-0.242536,0.970142,0.970142,3982.2449,0)"
         style="stroke:#0000ff;stroke-width:72.29720306;stroke-miterlimit:4;stroke-dasharray:none;stroke-opacity:1">
        <path
           id="path5507-2"
           style="fill:none;stroke:#0000ff;stroke-width:72.29720306;stroke-linecap:square;stroke-linejoin:round;stroke-miterlimit:4;stroke-dasharray:none;stroke-opacity:1"
           d="m 617.63692,401.15992 -2711.07612,677.76918 862.6151,215.6538"
           inkscape:connector-curvature="0" />
      </g>
    </g>
    <g
       id="g5431"
       transform="matrix(0.05951555,0.03248842,-0.03263956,0.05912332,144.83064,3.9243731)"
       style="stroke:#0000ff;stroke-width:35.48293686;stroke-miterlimit:4;stroke-dasharray:none;stroke-opacity:1">
      <g
         id="g5416"
         transform="matrix(0.242536,-0.242536,0.970142,0.970142,0,0)"
         style="stroke:#0000ff;stroke-width:51.7247963;stroke-miterlimit:4;stroke-dasharray:none;stroke-opacity:1">
        <path
           id="path5414"
           style="fill:none;stroke:#0000ff;stroke-width:51.7247963;stroke-linecap:square;stroke-linejoin:round;stroke-miterlimit:4;stroke-dasharray:none;stroke-opacity:1"
           d="M 145.46785,907.37927 C 212.39083,831.72465 140.1738,752.55395 -51.329718,691.63236 -206.56535,642.24841 -432.15275,608.52909 -682.70592,606.09778 c -233.24052,-2.26331 -460.92218,24.35062 -563.25328,76.11513 -158.0856,79.96803 47.038,167.19283 271.11758,240.29747 281.27901,91.76562 503.09701,206.94842 208.05817,280.70812 -137.07751,34.2694 -339.42745,43.3002 -532.58995,36.6602 -237.6319,-8.1687 -453.3768,-38.1109 -618.0221,-81.7298 -247.9927,-65.6999 -362.2878,-156.1309 -310.3181,-245.52577"
           inkscape:connector-curvature="0" />
      </g>
    </g>
  </g>
</svg>
