%!PS-Adobe-3.0 EPSF-3.0
%%Creator: cairo 1.14.10 (http://cairographics.org)
%%CreationDate: Tue Jul 18 15:35:26 2017
%%Pages: 1
%%DocumentData: Clean7Bit
%%LanguageLevel: 2
%%BoundingBox: 0 -1 150 182
%%EndComments
%%BeginProlog
save
50 dict begin
/q { gsave } bind def
/Q { grestore } bind def
/cm { 6 array astore concat } bind def
/w { setlinewidth } bind def
/J { setlinecap } bind def
/j { setlinejoin } bind def
/M { setmiterlimit } bind def
/d { setdash } bind def
/m { moveto } bind def
/l { lineto } bind def
/c { curveto } bind def
/h { closepath } bind def
/re { exch dup neg 3 1 roll 5 3 roll moveto 0 rlineto
      0 exch rlineto 0 rlineto closepath } bind def
/S { stroke } bind def
/f { fill } bind def
/f* { eofill } bind def
/n { newpath } bind def
/W { clip } bind def
/W* { eoclip } bind def
/BT { } bind def
/ET { } bind def
/pdfmark where { pop globaldict /?pdfmark /exec load put }
    { globaldict begin /?pdfmark /pop load def /pdfmark
    /cleartomark load def end } ifelse
/BDC { mark 3 1 roll /BDC pdfmark } bind def
/EMC { mark /EMC pdfmark } bind def
/cairo_store_point { /cairo_point_y exch def /cairo_point_x exch def } def
/Tj { show currentpoint cairo_store_point } bind def
/TJ {
  {
    dup
    type /stringtype eq
    { show } { -0.001 mul 0 cairo_font_matrix dtransform rmoveto } ifelse
  } forall
  currentpoint cairo_store_point
} bind def
/cairo_selectfont { cairo_font_matrix aload pop pop pop 0 0 6 array astore
    cairo_font exch selectfont cairo_point_x cairo_point_y moveto } bind def
/Tf { pop /cairo_font exch def /cairo_font_matrix where
      { pop cairo_selectfont } if } bind def
/Td { matrix translate cairo_font_matrix matrix concatmatrix dup
      /cairo_font_matrix exch def dup 4 get exch 5 get cairo_store_point
      /cairo_font where { pop cairo_selectfont } if } bind def
/Tm { 2 copy 8 2 roll 6 array astore /cairo_font_matrix exch def
      cairo_store_point /cairo_font where { pop cairo_selectfont } if } bind def
/g { setgray } bind def
/rg { setrgbcolor } bind def
/d1 { setcachedevice } bind def
/cairo_flush_ascii85_file { cairo_ascii85_file status { cairo_ascii85_file flushfile } if } def
/cairo_image { image cairo_flush_ascii85_file } def
/cairo_imagemask { imagemask cairo_flush_ascii85_file } def
%%EndProlog
%%BeginSetup
%%EndSetup
%%Page: 1 1
%%BeginPageSetup
%%PageBoundingBox: 0 -1 150 182
%%EndPageSetup
q 0 -1 150 183 rectclip q
1 g
0.125 181.329 149.098 -181.203 re f
0.129412 0.109804 0.113725 rg
0.25 w
0 J
0 j
[] 0.0 d
10 M q 1 0 0 1 0 181.449997 cm
0.125 -0.121 149.098 -181.203 re S Q
0.0627451 0.0588235 0.0509804 rg
41.328 123.997 m 34.258 123.997 27.227 118.669 27.227 109.751 c 27.227 
101.102 35.23 95.731 42.191 95.731 c 49.844 95.731 53.539 98.126 59.992 
96.821 c 65.035 95.805 67.762 93.341 69.113 92.044 c 69.762 91.427 70.582
 91.352 71.148 91.723 c 71.707 92.095 72.086 92.794 71.707 94.466 c 70.824
 98.36 68.75 102.716 66.344 106.434 c 61.613 113.739 52.016 123.997 41.328
 123.997 c f
106.789 123.997 m 113.863 123.997 120.891 118.669 120.891 109.751 c 120.891
 101.102 112.887 95.731 105.926 95.731 c 98.273 95.731 94.578 98.126 88.129
 96.821 c 83.082 95.805 80.355 93.341 79.004 92.044 c 78.355 91.427 77.531
 91.352 76.973 91.723 c 76.41 92.095 76.035 92.794 76.41 94.466 c 77.293
 98.36 79.367 102.716 81.777 106.434 c 86.508 113.739 96.102 123.997 106.789
 123.997 c f
83.113 148.083 m 79.16 148.083 75.891 146.423 74.059 143.997 c 72.227 146.423
 68.957 148.083 65.008 148.083 c 57.855 148.083 51.289 142.387 51.289 134.126
 c 51.289 130.505 52.746 127.755 54.062 125.833 c 55.566 123.641 57.543 
121.743 60.648 119.048 c 65.156 115.134 68.863 111.313 72.406 103.841 c 
72.684 103.247 73.285 102.571 74.059 102.571 c 74.832 102.571 75.43 103.247
 75.715 103.841 c 79.254 111.313 82.961 115.134 87.469 119.048 c 90.578 
121.743 92.551 123.641 94.055 125.833 c 95.375 127.755 96.828 130.505 96.828
 134.126 c 96.828 142.387 90.266 148.083 83.113 148.083 c f
1 g
82.781 143.997 m 78.043 143.997 75.09 140.43 74.059 137.88 c 73.027 140.43
 70.078 143.997 65.34 143.997 c 59.883 143.997 55.469 139.489 55.469 134.036
 c 55.469 131.977 56.172 130.083 57.434 128.352 c 62.402 121.563 69.148 
119.387 74.059 108.751 c 78.969 119.387 85.715 121.563 90.684 128.352 c 
91.945 130.083 92.648 131.977 92.648 134.036 c 92.648 139.489 88.234 143.997
 82.781 143.997 c f
0.0627451 0.0588235 0.0509804 rg
40.551 70.645 m 40.551 67.923 l 42.531 67.923 l 43.516 67.923 44.031 68.454
 44.031 69.235 c 44.031 70.071 43.5 70.645 42.609 70.645 c h
45.918 63.481 m 46.211 63.055 45.934 62.602 45.426 62.602 c 44.883 62.602
 l 44.629 62.602 44.363 62.751 44.219 62.966 c 42.051 66.341 l 40.551 66.341
 l 40.551 63.243 l 40.551 62.911 40.352 62.602 39.898 62.602 c 39.516 62.602
 l 39.062 62.602 38.848 62.911 38.848 63.243 c 38.848 71.614 l 38.848 71.946
 39.062 72.266 39.516 72.266 c 42.625 72.266 l 44.512 72.266 45.773 71.032
 45.773 69.29 c 45.773 67.88 44.895 66.884 43.82 66.552 c 45.918 63.481 
l f
51.5 74.419 m 51.605 74.595 51.805 74.751 52.055 74.751 c 52.895 74.751
 l 53.172 74.751 53.293 74.462 53.121 74.262 c 52.203 73.141 l 52.031 72.93
 51.844 72.809 51.59 72.809 c 51.02 72.809 l 50.809 72.809 50.648 73.024
 50.781 73.251 c h
49.969 70.645 m 49.969 68.415 l 52.961 68.415 l 53.332 68.415 53.625 68.173
 53.625 67.762 c 53.625 67.442 l 53.625 67.032 53.332 66.79 52.961 66.79
 c 49.969 66.79 l 49.969 64.223 l 54.102 64.223 l 54.504 64.223 54.77 63.934
 54.77 63.587 c 54.77 63.243 l 54.77 62.884 54.504 62.602 54.102 62.602 
c 48.945 62.602 l 48.496 62.602 48.297 62.895 48.297 63.243 c 48.297 71.614
 l 48.297 71.962 48.496 72.266 48.945 72.266 c 53.863 72.266 l 54.211 72.266
 54.504 72.028 54.504 71.614 c 54.504 71.298 l 54.504 70.895 54.211 70.645
 53.863 70.645 c 49.969 70.645 l f
63.551 69.063 m 63.164 68.919 l 62.82 68.798 62.484 68.958 62.367 69.29
 c 62.035 70.153 61.398 70.778 60.348 70.778 c 58.832 70.778 57.941 69.262
 57.941 67.403 c 57.941 65.489 58.766 64.079 60.332 64.079 c 61.742 64.079
 62.5 65.036 62.551 66.341 c 60.93 66.341 l 60.574 66.341 60.281 66.552 
60.281 66.966 c 60.281 67.298 l 60.281 67.692 60.547 67.946 60.918 67.946
 c 63.562 67.946 l 63.934 67.946 64.188 67.723 64.188 67.321 c 64.188 66.856
 l 64.188 64.134 62.551 62.497 60.266 62.497 c 57.77 62.497 56.293 64.598
 56.293 67.391 c 56.293 70.192 57.953 72.372 60.359 72.372 c 62.156 72.372
 63.445 71.36 63.922 69.848 c 64.043 69.489 63.895 69.18 63.551 69.063 c
 f
66.973 71.63 m 66.973 71.985 67.188 72.266 67.613 72.266 c 67.984 72.266
 l 68.41 72.266 68.637 71.985 68.637 71.63 c 68.637 63.227 l 68.637 62.884
 68.422 62.602 67.984 62.602 c 67.625 62.602 l 67.199 62.602 66.973 62.884
 66.973 63.227 c 66.973 71.63 l f
73.02 67.43 m 73.02 65.516 73.883 64.106 75.348 64.106 c 76.809 64.106 
77.672 65.516 77.672 67.43 c 77.672 69.313 76.781 70.805 75.348 70.805 c
 73.91 70.805 73.02 69.313 73.02 67.43 c h
71.344 67.43 m 71.344 70.302 72.953 72.372 75.348 72.372 c 77.738 72.372
 79.348 70.302 79.348 67.43 c 79.348 64.555 77.766 62.497 75.348 62.497 
c 72.926 62.497 71.344 64.555 71.344 67.43 c f
81.656 71.614 m 81.656 71.946 81.867 72.266 82.32 72.266 c 82.957 72.266
 l 83.223 72.266 83.465 72.083 83.582 71.868 c 87.051 65.7 l 87.039 71.614
 l 87.039 71.973 87.266 72.266 87.664 72.266 c 88.062 72.266 l 88.488 72.266
 88.699 71.973 88.699 71.614 c 88.699 63.255 l 88.699 62.911 88.473 62.602
 88.047 62.602 c 87.477 62.602 l 87.211 62.602 87 62.778 86.891 62.966 c
 83.305 69.345 l 83.332 63.243 l 83.332 62.911 83.156 62.602 82.707 62.602
 c 82.293 62.602 l 81.844 62.602 81.656 62.911 81.656 63.243 c 81.656 71.614
 l f
97.707 64.212 m 99.512 64.212 100.684 65.555 100.684 67.415 c 100.684 69.345
 99.555 70.661 97.691 70.661 c 96.391 70.661 l 96.391 64.212 l h
95.367 62.602 m 94.93 62.602 94.742 62.911 94.742 63.243 c 94.742 71.614
 l 94.742 71.946 94.941 72.266 95.367 72.266 c 97.641 72.266 l 100.457 72.266
 102.332 70.352 102.332 67.415 c 102.332 64.555 100.352 62.602 97.664 62.602
 c 95.367 62.602 l f
106.328 70.645 m 106.328 68.415 l 109.316 68.415 l 109.691 68.415 109.984
 68.173 109.984 67.762 c 109.984 67.442 l 109.984 67.032 109.691 66.79 109.316
 66.79 c 106.328 66.79 l 106.328 64.223 l 110.461 64.223 l 110.859 64.223
 111.125 63.934 111.125 63.587 c 111.125 63.243 l 111.125 62.884 110.859
 62.602 110.461 62.602 c 105.305 62.602 l 104.852 62.602 104.652 62.895 
104.652 63.243 c 104.652 71.614 l 104.652 71.962 104.852 72.266 105.305 
72.266 c 110.223 72.266 l 110.566 72.266 110.859 72.028 110.859 71.614 c
 110.859 71.298 l 110.859 70.895 110.566 70.645 110.223 70.645 c 106.328
 70.645 l f
36.949 49.598 m 37.707 49.598 38.254 50.13 38.254 50.899 c 38.254 51.684
 37.656 52.216 36.883 52.216 c 34.344 52.216 l 34.344 49.598 l h
34.344 53.743 m 36.457 53.743 l 36.871 53.864 37.258 54.329 37.27 54.833
 c 37.281 55.524 36.777 56.032 36.059 56.032 c 34.344 56.032 l h
33.309 47.989 m 32.855 47.989 32.656 48.294 32.656 48.626 c 32.656 57.001
 l 32.656 57.333 32.855 57.653 33.309 57.653 c 36.047 57.653 l 37.785 57.653
 38.957 56.536 38.957 54.915 c 38.957 54.368 38.652 53.786 38.277 53.438
 c 39.25 53.079 39.953 52.005 39.953 50.887 c 39.953 49.134 38.742 47.989
 36.988 47.989 c 33.309 47.989 l f
43.91 56.032 m 43.91 53.305 l 45.891 53.305 l 46.875 53.305 47.395 53.837
 47.395 54.622 c 47.395 55.458 46.859 56.032 45.973 56.032 c h
49.281 48.864 m 49.574 48.442 49.293 47.989 48.789 47.989 c 48.242 47.989
 l 47.992 47.989 47.727 48.137 47.578 48.348 c 45.414 51.723 l 43.91 51.723
 l 43.91 48.626 l 43.91 48.294 43.711 47.989 43.262 47.989 c 42.875 47.989
 l 42.422 47.989 42.211 48.294 42.211 48.626 c 42.211 57.001 l 42.211 57.333
 42.422 57.653 42.875 57.653 c 45.984 57.653 l 47.871 57.653 49.133 56.415
 49.133 54.677 c 49.133 53.266 48.258 52.266 47.18 51.934 c 49.281 48.864
 l f
51.656 51.286 m 51.656 57.001 l 51.656 57.333 51.855 57.653 52.309 57.653
 c 52.691 57.653 l 53.145 57.653 53.344 57.333 53.344 57.001 c 53.344 51.259
 l 53.344 50.13 54.09 49.477 55.18 49.477 c 56.281 49.477 57 50.13 57 51.259
 c 57 57.001 l 57 57.333 57.199 57.653 57.652 57.653 c 58.023 57.653 l 58.473
 57.653 58.672 57.333 58.672 57.001 c 58.672 51.286 l 58.672 49.184 57.332
 47.884 55.18 47.884 c 53 47.884 51.656 49.173 51.656 51.286 c f
64.625 54.395 m 66.523 57.305 l 66.645 57.493 66.855 57.653 67.137 57.653
 c 67.746 57.653 l 68.211 57.653 68.504 57.184 68.199 56.72 c 65.648 52.919
 l 68.32 48.907 l 68.625 48.442 68.344 47.989 67.852 47.989 c 67.297 47.989
 l 66.977 47.989 66.789 48.149 66.684 48.321 c 64.625 51.458 l 62.578 48.321
 l 62.457 48.149 62.273 47.989 61.953 47.989 c 61.395 47.989 l 60.914 47.989
 60.625 48.442 60.941 48.919 c 63.613 52.919 l 61.074 56.72 l 60.77 57.184
 61.047 57.653 61.516 57.653 c 62.113 57.653 l 62.391 57.653 62.605 57.493
 62.723 57.305 c 64.625 54.395 l f
72.367 56.032 m 72.367 53.798 l 75.359 53.798 l 75.73 53.798 76.023 53.555
 76.023 53.145 c 76.023 52.829 l 76.023 52.415 75.73 52.177 75.359 52.177
 c 72.367 52.177 l 72.367 49.61 l 76.504 49.61 l 76.902 49.61 77.168 49.317
 77.168 48.973 c 77.168 48.626 l 77.168 48.266 76.902 47.989 76.504 47.989
 c 71.348 47.989 l 70.895 47.989 70.695 48.282 70.695 48.626 c 70.695 57.001
 l 70.695 57.345 70.895 57.653 71.348 57.653 c 76.266 57.653 l 76.609 57.653
 76.902 57.411 76.902 57.001 c 76.902 56.68 l 76.902 56.282 76.609 56.032
 76.266 56.032 c 72.367 56.032 l f
79.93 47.989 m 79.477 47.989 79.289 48.294 79.289 48.626 c 79.289 57.001
 l 79.289 57.333 79.504 57.653 79.93 57.653 c 80.312 57.653 l 80.738 57.653
 80.953 57.333 80.953 57.001 c 80.953 49.622 l 84.781 49.622 l 85.113 49.622
 85.418 49.427 85.418 48.985 c 85.418 48.626 l 85.418 48.188 85.113 47.989
 84.781 47.989 c 79.93 47.989 l f
87.633 47.989 m 87.184 47.989 86.996 48.294 86.996 48.626 c 86.996 57.001
 l 86.996 57.333 87.211 57.653 87.633 57.653 c 88.02 57.653 l 88.445 57.653
 88.656 57.333 88.656 57.001 c 88.656 49.622 l 92.484 49.622 l 92.816 49.622
 93.125 49.427 93.125 48.985 c 93.125 48.626 l 93.125 48.188 92.816 47.989
 92.484 47.989 c 87.633 47.989 l f
96.391 56.032 m 96.391 53.798 l 99.383 53.798 l 99.754 53.798 100.047 53.555
 100.047 53.145 c 100.047 52.829 l 100.047 52.415 99.754 52.177 99.383 52.177
 c 96.391 52.177 l 96.391 49.61 l 100.523 49.61 l 100.922 49.61 101.188 
49.317 101.188 48.973 c 101.188 48.626 l 101.188 48.266 100.922 47.989 100.523
 47.989 c 95.367 47.989 l 94.914 47.989 94.715 48.282 94.715 48.626 c 94.715
 57.001 l 94.715 57.345 94.914 57.653 95.367 57.653 c 100.285 57.653 l 100.629
 57.653 100.922 57.411 100.922 57.001 c 100.922 56.68 l 100.922 56.282 100.629
 56.032 100.285 56.032 c 96.391 56.032 l f
109.957 50.872 m 109.957 49.356 108.574 47.884 106.344 47.884 c 104.203
 47.884 102.621 49.012 102.582 51.231 c 102.582 51.591 102.82 51.884 103.207
 51.884 c 103.645 51.884 l 104.016 51.884 104.297 51.657 104.32 51.259 c
 104.402 50.063 105.16 49.505 106.344 49.505 c 107.484 49.505 108.203 50.102
 108.203 50.833 c 108.203 51.407 107.871 51.778 107.02 51.977 c 106.516 
52.095 105.969 52.243 105.41 52.403 c 104.297 52.72 102.992 53.372 102.992
 54.954 c 102.992 56.747 104.441 57.759 106.289 57.759 c 108.043 57.759 
109.492 56.68 109.664 55.059 c 109.703 54.677 109.48 54.384 109.027 54.384
 c 108.641 54.384 l 108.27 54.384 108.004 54.634 107.965 54.981 c 107.883
 55.778 107.18 56.188 106.262 56.188 c 105.344 56.188 104.68 55.696 104.695
 54.993 c 104.707 54.407 105.305 54.13 105.957 53.958 c 106.477 53.809 106.914
 53.704 107.457 53.571 c 109.188 53.173 109.957 52.266 109.957 50.872 c f
112.094 51.95 m 111.762 51.95 111.508 52.149 111.508 52.536 c 111.508 52.841
 l 111.508 53.223 111.762 53.438 112.094 53.438 c 116.891 53.438 l 117.223
 53.438 117.488 53.251 117.488 52.841 c 117.488 52.536 l 117.488 52.137 
117.223 51.95 116.891 51.95 c 112.094 51.95 l f
49.531 36.751 m 50.012 36.751 l 50.438 36.751 50.73 36.446 50.516 35.927
 c 49.758 34.134 48.469 33.266 46.688 33.266 c 44.23 33.266 42.637 35.395
 42.637 38.2 c 42.637 41.122 44.27 43.141 46.797 43.141 c 48.551 43.141 
49.973 41.946 50.398 40.313 c 50.477 39.993 50.332 39.661 49.996 39.567 
c 49.613 39.462 l 49.254 39.368 48.883 39.501 48.789 39.872 c 48.551 40.856
 47.844 41.536 46.797 41.548 c 45.266 41.559 44.309 40.231 44.309 38.212
 c 44.309 36.298 45.227 34.903 46.703 34.903 c 47.766 34.903 48.484 35.395
 48.844 36.298 c 48.961 36.602 49.227 36.751 49.531 36.751 c f
54.539 37.481 m 56.719 37.481 l 55.645 40.673 l h
53.98 35.86 m 53.199 33.868 l 53.078 33.548 52.812 33.376 52.531 33.376
 c 51.988 33.376 l 51.602 33.376 51.352 33.68 51.512 34.095 c 54.688 42.477
 l 54.82 42.825 55.02 43.036 55.445 43.036 c 55.855 43.036 l 56.281 43.036
 56.453 42.825 56.586 42.477 c 59.789 34.079 l 59.938 33.708 59.75 33.376
 59.312 33.376 c 58.727 33.376 l 58.434 33.376 58.18 33.536 58.062 33.852
 c 57.316 35.86 l 53.98 35.86 l f
63.457 41.415 m 63.457 38.505 l 65.621 38.505 l 66.59 38.505 67.176 39.024
 67.176 39.927 c 67.176 40.845 66.59 41.415 65.621 41.415 c h
65.637 43.036 m 67.641 43.036 68.863 41.802 68.863 39.966 c 68.863 38.134
 67.762 36.923 65.621 36.923 c 63.457 36.923 l 63.457 34.028 l 63.457 33.692
 63.242 33.376 62.816 33.376 c 62.418 33.376 l 62.008 33.376 61.766 33.692
 61.766 34.028 c 61.766 42.372 l 61.766 42.743 62.031 43.036 62.43 43.036
 c 65.637 43.036 l f
71.254 42.399 m 71.254 42.759 71.465 43.036 71.891 43.036 c 72.262 43.036
 l 72.688 43.036 72.914 42.759 72.914 42.399 c 72.914 34.001 l 72.914 33.653
 72.703 33.376 72.262 33.376 c 71.906 33.376 l 71.48 33.376 71.254 33.653
 71.254 34.001 c 71.254 42.399 l f
75.598 41.415 m 75.227 41.415 74.961 41.669 74.961 42.067 c 74.961 42.387
 l 74.961 42.786 75.227 43.036 75.598 43.036 c 81.832 43.036 l 82.203 43.036
 82.469 42.786 82.469 42.387 c 82.469 42.067 l 82.469 41.669 82.203 41.415
 81.832 41.415 c 79.543 41.415 l 79.543 34.012 l 79.543 33.669 79.305 33.376
 78.895 33.376 c 78.523 33.376 l 78.109 33.376 77.883 33.669 77.883 34.012
 c 77.883 41.415 l 75.598 41.415 l f
85.496 37.481 m 87.676 37.481 l 86.598 40.673 l h
84.938 35.86 m 84.152 33.868 l 84.035 33.548 83.77 33.376 83.488 33.376
 c 82.945 33.376 l 82.559 33.376 82.305 33.68 82.465 34.095 c 85.641 42.477
 l 85.773 42.825 85.973 43.036 86.398 43.036 c 86.812 43.036 l 87.238 43.036
 87.41 42.825 87.543 42.477 c 90.746 34.079 l 90.891 33.708 90.707 33.376
 90.266 33.376 c 89.684 33.376 l 89.391 33.376 89.137 33.536 89.02 33.852
 c 88.273 35.86 l 84.938 35.86 l f
93.359 33.376 m 92.91 33.376 92.723 33.68 92.723 34.012 c 92.723 42.387
 l 92.723 42.72 92.934 43.036 93.359 43.036 c 93.746 43.036 l 94.172 43.036
 94.383 42.72 94.383 42.387 c 94.383 35.009 l 98.211 35.009 l 98.543 35.009
 98.848 34.809 98.848 34.372 c 98.848 34.012 l 98.848 33.575 98.543 33.376
 98.211 33.376 c 93.359 33.376 l f
102.117 41.415 m 102.117 39.18 l 105.105 39.18 l 105.48 39.18 105.77 38.942
 105.77 38.532 c 105.77 38.212 l 105.77 37.802 105.48 37.559 105.105 37.559
 c 102.117 37.559 l 102.117 34.997 l 106.25 34.997 l 106.648 34.997 106.914
 34.704 106.914 34.356 c 106.914 34.012 l 106.914 33.653 106.648 33.376 
106.25 33.376 c 101.094 33.376 l 100.641 33.376 100.441 33.669 100.441 34.012
 c 100.441 42.387 l 100.441 42.731 100.641 43.036 101.094 43.036 c 106.012
 43.036 l 106.355 43.036 106.648 42.798 106.648 42.387 c 106.648 42.067 
l 106.648 41.669 106.355 41.415 106.012 41.415 c 102.117 41.415 l f
Q Q
showpage
%%Trailer
end restore
%%EOF
